/home/parias/workplace/dev/finder-parias/src/main/java/algorithm/CouplesData.java
/home/parias/workplace/dev/finder-parias/src/main/java/algorithm/AlgorithmA.java
/home/parias/workplace/dev/finder-parias/src/main/java/algorithm/Algorithm.java
/home/parias/workplace/dev/finder-parias/src/main/java/algorithm/Finder.java
/home/parias/workplace/dev/finder-parias/src/main/java/algorithm/Context.java
/home/parias/workplace/dev/finder-parias/src/main/java/algorithm/AlgorithmB.java
/home/parias/workplace/dev/finder-parias/src/main/java/algorithm/Person.java
